{
  "project_info": {
    "project_number": "848291185916",
    "project_id": "filestorage-20c4b",
    "storage_bucket": "filestorage-20c4b.appspot.com"
  },
  "client": [
    {
      "client_info": {
        "mobilesdk_app_id": "1:848291185916:android:88270ec4aece935dc30379",
        "android_client_info": {
          "package_name": "com.example.firestore"
        }
      },
      "oauth_client": [
        {
          "client_id": "848291185916-rnvi2ci1ugkdo7ip355dc5i69b2gos8s.apps.googleusercontent.com",
          "client_type": 3
        }
      ],
      "api_key": [
        {
          "current_key": "AIzaSyA6d0AMW_CWsZ2UjLQpeHpBg7itaIu_1wA"
        }
      ],
      "services": {
        "appinvite_service": {
          "other_platform_oauth_client": [
            {
              "client_id": "848291185916-rnvi2ci1ugkdo7ip355dc5i69b2gos8s.apps.googleusercontent.com",
              "client_type": 3
            }
          ]
        }
      }
    }
  ],
  "configuration_version": "1"
}